

--1【SAP采购计划】
select '主单' || a.id,
       a.syscode,
       a.abroadcode,
       a.plantype as 计划类型,
       a.handlestatus as 状态,
       a.modifytime as 修改时间,
       a.message,
       '清单' || b.id,
       b.purchaseplanid as 采购计划单Id,
       b.abroadpartcode,
       b.sparepartcode as 配件编号,
       b.planamount as 计划量,
       b.measureunit,
       b.promiseddeliverytime as 要求到货时间,
       b.remark as 备注,
       b.businesscode,
       b.warehousename as 仓库名称,
       b.originalorder,
       b.overseassupliercode
  from yxdcs.PartsPurchasePlanSap a
 inner join yxdcs.PartsPurchasePlanDetailSap b
    on a.Id = b.PURCHASEPLANID
 where a.modifytime >=
       to_date(to_char(trunc(sysdate), 'yyyy-mm-dd') || '11:30:00',
               'yyyy-mm-dd hh24:mi:ss');


--2【PMS强制完成】
select '主单' || a.id,
       a.code as 采购订单编号,
       a.branchid as 分公司Id,
       a.branchcode as 分公司编号,
       a.branchname as 分公司名称,
       a.warehouseid as 仓库Id,
       a.warehousename as 仓库名称,
       a.partssalescategoryid as 配件销售类型Id,
       a.partssalescategoryname as 销售类型名称,
       a.directrecwarehouseid as 直供收货仓库Id,
       a.directrecwarehousename as 直供收货仓库名称,
       a.receivingcompanyid as 收货单位Id,
       a.receivingcompanyname as 收货单位名称,
       a.receivingaddress as 收货地址,
       a.partssupplierid as 供应商Id,
       a.partssuppliercode as 供应商编号,
       a.partssuppliername as 供应商名称,
       a.ifdirectprovision as 是否直供,
       a.originalrequirementbillid as 原始需求单据Id,
       decode(a.originalrequirementbilltype,
              1,
              '配件销售订单',
              2,
              '配件销售退货单',
              3,
              '积压件调剂单',
              4,
              '配件采购订单',
              5,
              '配件采购退货单',
              6,
              '配件调拨单',
              7,
              '内部领入单',
              8,
              '内部领出单',
              9,
              '配件零售订单',
              10,
              '配件零售退货单',
              11,
              '企业间配件调拨',
              12,
              '配件外采申请单',
              13,
              '维修单',
              14,
              '配件索赔单') as 原始需求单据类型,
       a.originalrequirementbillcode as 原始需求单据编号,
       a.totalamount as 总金额,
       decode(a.partspurchaseordertypeid,
              1,
              '月度采购订单',
              2,
              '周度采购订单',
              3,
              '紧急采购订单',
              4,
              '专项采购订单',
              5,
              '内部直供采购订单') as 配件采购订单类型,
       a.requesteddeliverytime as 要求到货时间,
       decode(a.shippingmethod,
              1,
              '公路货运',
              2,
              '公路客运',
              3,
              '铁路集装箱',
              4,
              '铁路快件',
              5,
              '特快专递',
              6,
              '邮寄包裹',
              7,
              '空运',
              8,
              '客户自行运输',
              9,
              '专车发运',
              10,
              '海运') as 发运方式,
       a.plansource as 计划来源,
       decode(a.status,
              1,
              '新增',
              2,
              '提交',
              3,
              '部分确认',
              4,
              '确认完毕',
              5,
              '部分发运',
              6,
              '发运完毕',
              7,
              '终止',
              99,
              '作废') as 状态,
       a.confirmationremark as 确认备注,
       a.remark as 备注,
       decode(a.instatus,
              5,
              '未入库',
              10,
              '部分入库',
              11,
              '强制完成',
              15,
              '全部入库完成',
              99,
              '作废') as 入库状态,
       a.abandonorstopreason as 作废或终止原因,
       a.creatorid as 创建人Id,
       a.creatorname as 创建人,
       a.createtime as 创建时间,
       a.modifierid as 修改人Id,
       a.modifiername as 修改人,
       a.modifytime as 修改时间,
       a.abandonerid as 作废人Id,
       a.abandonername as 作废人,
       a.abandontime as 作废时间,
       a.submitterid as 提交人Id,
       a.submittername as 提交人,
       a.submittime as 提交时间,
       a.approverid as 审批人Id,
       a.approvername as 审批人,
       a.firstapprovetime as 第一次审批时间,
       a.approvetime as 最终审批时间,
       a.closerid as 终止人Id,
       a.closername as 终止人,
       a.closetime as 终止时间,
       a.rowversion,
       a.gpmspurordercode as GPMS采购计划单号,
       a.purordercode as 采购计划单号,
       a.sappurchaseplancode as SAPPurchasePlanCode,
       a.ifinnerdirectprovision,
       '清单' || c.id,
       c.partspurchaseorderid as 采购订单Id,
       c.serialnumber as 序号,
       c.sparepartid as 配件Id,
       c.sparepartcode as 配件编号,
       c.sparepartname as 配件名称,
       c.supplierpartcode as 供应商图号,
       c.promiseddeliverytime as 承诺到货时间,
       c.unitprice as 单价,
       c.orderamount as 订货量,
       c.confirmedamount as 确认量,
       c.shippingamount as 发运量,
       c.measureunit as 计量单位,
       c.specification as 规格型号,
       c.packingamount as 包装数量,
       c.packingspecification as 包装规格,
       c.remark as 备注,
       c.confirmationremark as 确认备注,
       c.directorderamount as 直供量,
       c.purchasepricebefore as 变更前采购价格,
       c.overseaspartsfigure as 海外配件图号,
       c.overseasprojectnumber as 海外行项目号,
       c.originalplannumber as 原始计划数量,
       c.pocode
  from yxdcs.PartsPurchaseOrder a
 inner join yxdcs.PartsPurchaseOrderDetail c
    on a.id = c.partspurchaseorderid
 inner join yxdcs.PartsPurchasePlan_HW b
    on a.PurOrderCode = b.code
 where a.id in
       (select g.bussinessid
          from yxdcs.BPM_PartsPurchaseOrderHW_SYNC g
         where g.sendtime >=
               to_date(to_char(trunc(sysdate), 'yyyy-mm-dd') || '11:30:00',
                       'yyyy-mm-dd hh24:mi:ss')
         group by g.bussinessid)
   and a.partssalescategoryname = '海外轻卡';

--3【入库单】
select '主单' || a.id,
       a.code as 配件入库检验单编号,
       a.partsinboundplanid as 配件入库计划Id,
       a.warehouseid as 配件仓库Id,
       a.warehousecode as 配件仓库编号,
       a.warehousename as 配件仓库名称,
       a.storagecompanyid as 仓储企业Id,
       a.storagecompanycode as 仓储企业编号,
       a.storagecompanyname as 仓储企业名称,
       decode(a.storagecompanytype,
              1,
              '分公司',
              2,
              '服务站',
              3,
              '代理库',
              4,
              '物流公司',
              5,
              '责任单位',
              6,
              '配件供应商',
              7,
              '服务站兼代理库',
              8,
              '集团企业',
              10,
              '服务站兼供应商') as 仓储企业类型,
       a.partssalescategoryid as 配件销售类型Id,
       a.branchid as 营销分公司Id,
       a.branchcode as 营销分公司编号,
       a.branchname as 营销分公司名称,
       a.counterpartcompanyid as 对方单位Id,
       a.counterpartcompanycode as 对方单位编号,
       a.counterpartcompanyname as 对方单位名称,
       decode(a.inboundtype,
              1,
              '配件采购',
              2,
              '销售退货',
              3,
              '配件调拨',
              4,
              '内部领入',
              5,
              '配件零售退货',
              6,
              '积压件调剂',
              7,
              '配件外采',
              8,
              '质量件索赔') as 入库类型,
       a.customeraccountid as 客户账户Id,
       a.originalrequirementbillid as 原始需求单据Id,
       decode(a.originalrequirementbilltype,
              1,
              '配件销售订单',
              2,
              '配件销售退货单',
              3,
              '积压件调剂单',
              4,
              '配件采购订单',
              5,
              '配件采购退货单',
              6,
              '配件调拨单',
              7,
              '内部领入单',
              8,
              '内部领出单',
              9,
              '配件零售订单',
              10,
              '配件零售退货单',
              11,
              '企业间配件调拨',
              12,
              '配件外采申请单',
              13,
              '维修单',
              14,
              '配件索赔单') as 原始需求单据类型,
       a.originalrequirementbillcode as 原始需求单据编号,
       decode(a.status, 1, '新建', 2, '包装完成', 3, '上架完成') as 状态,
       decode(a.settlementstatus, 1, '不结算', 2, '待结算', 3, '已结算') as 结算状态,
       a.remark as 备注,
       a.creatorid as 创建人Id,
       a.creatorname as 创建人,
       a.createtime as 创建时间,
       a.modifierid as 修改人Id,
       a.modifiername as 修改人,
       a.modifytime as 修改时间,
       a.rowversion,
       a.objid as 入库质检单号,
       a.gpmspurordercode as GPMS采购计划单号,
       a.purordercode as 采购计划单号,
       a.returncontainernumber as 退货货箱号,
       a.sappurchaseplancode as SAP采购计划单号,
       '清单' || b.id,
       b.partsinboundcheckbillid as 配件入库检验单Id,
       b.sparepartid as 配件Id,
       b.sparepartcode as 配件编号,
       b.sparepartname as 配件名称,
       b.warehouseareaid as 库位Id,
       b.warehouseareacode as 库位编号,
       b.inspectedquantity as 检验量,
       b.settlementprice as 结算价,
       b.costprice as 成本价,
       b.remark as 备注,
       b.spareorderremark as 采购订单清单备注,
       b.overseaspartsfigure as 海外配件图号,
       b.overseasprojectnumber as 海外行项目号,
       b.zxiangi as 退货货箱号,
       b.pocode
  from yxdcs.PartsInboundCheckBill a
 inner join yxdcs.PartsInboundCheckBillDetail b
    on a.id = b.partsinboundcheckbillid
 where a.PartsSalesCategoryId = 8
   and a.CreateTime >=
       to_date(to_char(trunc(sysdate), 'yyyy-mm-dd') || '11:30:00',
               'yyyy-mm-dd hh24:mi:ss');


--4【出库包装计划】
select '主单' || a.id,
       a.objid,
       a.thedate,
       a.interface_record_id,
       a.interface_condition,
       a.interface_action_code,
       a.company,
       a.shipment_id,
       a.warehouse,
       a.user_stamp,
       a.date_time_stamp,
       a.scheduled_ship_date,
       a.customer,
       a.order_type,
       a.ship_to,
       a.ship_to_address1,
       a.ship_to_address2,
       a.ship_to_name,
       a.ship_to_attention_to,
       a.carrier,
       a.allocate_complete,
       a.erp_order,
       a.carrier_service,
       a.ship_to_city,
       a.ship_to_state,
       a.ship_to_country,
       a.ship_to_postal_code,
       a.read_date_time_stamp,
       a.user_def1,
       a.user_def2,
       a.user_def3,
       a.user_def4,
       a.user_def5,
       a.user_def6,
       a.user_def7,
       a.user_def8,
       a.user_def9,
       a.user_def10,
       a.user_def11,
       a.user_def12,
       a.user_def13,
       a.p_fumigating,
       a.p_auditing,
       a.p_packing_instructions,
       a.p_mark,
       a.p_inspection,
       a.p_user_def1,
       a.p_user_def2,
       a.handlestatus,
       a.modifytime as 修改时间,
       a.message as 信息,
       '清单' || b.id,
       b.objid,
       b.parentid as 主单ID,
       b.interface_condition,
       b.interface_action_code,
       b.interface_record_id,
       b.company,
       b.interface_link_id,
       b.shipment_id,
       b.warehouse,
       b.item,
       b.quantity_um,
       b.total_qty,
       b.lot_controlled,
       b.user_stamp,
       b.date_time_stamp,
       b.erp_order_line_num,
       b.read_date_time_stamp,
       b.user_def1,
       b.user_def2,
       b.user_def3,
       b.user_def4,
       b.user_def5,
       b.user_def6,
       b.user_def7,
       b.user_def8,
       b.erp_order,
       b.posnr,
       b.ebeln as 销售订单编号,
       b.ebelp
  from yxdcs.PartsOutboundPlanASAP a
 inner join yxdcs.PartsOutboundPlanDASAP b
    on a.Id = b.parentid
 where a.modifytime >=
       to_date(to_char(trunc(sysdate), 'yyyy-mm-dd') || '11:30:00',
               'yyyy-mm-dd hh24:mi:ss');


--5【出库单】
select '主单' || a.id,
       a.code as 配件出库单编号,
       a.partsoutboundplanid as 配件出库计划Id,
       a.warehouseid as 配件仓库Id,
       a.warehousecode as 配件仓库编号,
       a.warehousename as 配件仓库名称,
       a.storagecompanyid as 仓储企业Id,
       a.storagecompanycode as 仓储企业编号,
       a.storagecompanyname as 仓储企业名称,
       decode(a.storagecompanytype,
              1,
              '分公司',
              2,
              '服务站',
              3,
              '代理库',
              4,
              '物流公司',
              5,
              '责任单位',
              6,
              '配件供应商',
              7,
              '服务站兼代理库',
              8,
              '集团企业',
              10,
              '服务站兼供应商') as 仓储企业类型,
       a.branchid as 营销分公司Id,
       a.branchcode as 营销分公司编号,
       a.branchname as 营销分公司名称,
       a.partssalescategoryid as 配件销售类型Id,
       a.partssalesordertypeid as 配件销售订单类型Id,
       a.partssalesordertypename as 配件销售订单类型名称,
       a.counterpartcompanyid as 对方单位Id,
       a.counterpartcompanycode as 对方单位编号,
       a.counterpartcompanyname as 对方单位名称,
       a.receivingcompanyid as 收货单位Id,
       a.receivingcompanycode as 收货单位编号,
       a.receivingcompanyname as 收货单位名称,
       a.receivingwarehouseid as 收货仓库Id,
       a.receivingwarehousecode as 收货仓库编号,
       a.receivingwarehousename as 收货仓库名称,
       decode(a.outboundtype,
              1,
              '配件销售',
              2,
              '采购退货',
              3,
              '内部领出',
              4,
              '配件调拨',
              5,
              '积压件调剂',
              6,
              '配件零售',
              7,
              '质量件索赔') as 出库类型,
       a.shippingmethod as 发运方式,
       a.customeraccountid as 客户账户Id,
       a.originalrequirementbillid as 原始需求单据Id,
       decode(a.originalrequirementbilltype,
              1,
              '配件销售订单',
              2,
              '配件销售退货单',
              3,
              '积压件调剂单',
              4,
              '配件采购订单',
              5,
              '配件采购退货单',
              6,
              '配件调拨单',
              7,
              '内部领入单',
              8,
              '内部领出单',
              9,
              '配件零售订单',
              10,
              '配件零售退货单',
              11,
              '企业间配件调拨',
              12,
              '配件外采申请单',
              13,
              '维修单',
              14,
              '配件索赔单') as 原始需求单据类型,
       a.originalrequirementbillcode as 原始需求单据编号,
       decode(a.settlementstatus, 1, '不结算', 2, '待结算', 3, '已结算') as 结算状态,
       a.orderapprovecomment as 订单审批意见,
       a.remark as 备注,
       a.creatorid as 创建人Id,
       a.creatorname as 创建人,
       a.createtime as 创建时间,
       a.modifierid as 修改人Id,
       a.modifiername as 修改人,
       a.modifytime as 修改时间,
       a.rowversion as RowVersion,
       a.interfacerecordid,
       a.gpmspurordercode as GPMS采购计划单号,
       a.contractcode,
       a.outboundpackplancode,
       a.printtimes as 打印次数,
       decode(a.purdistributionstatus,
              1,
              '未处理',
              2,
              '已处理',
              3,
              '处理失败') as 统购分销处理状态,
       a.sappurchaseplancode as SAP采购计划单号,
       '清单' || b.id,
       b.partsoutboundbillid as 配件出库单Id,
       b.sparepartid as 配件Id,
       b.sparepartcode as 配件编号,
       b.sparepartname as 配件名称,
       b.outboundamount as 出库数量,
       b.warehouseareaid as 库位Id,
       b.warehouseareacode as 库位编号,
       b.batchnumber as 批次号,
       b.settlementprice as 结算价,
       b.costprice as 成本价,
       b.remark as 备注,
       b.containernumber as 货箱号,
       b.containertype as 货箱类型,
       b.soncontainer as 子货箱,
       b.packageordernumber as 出库包装订单号,
       b.packageordernumberline as 出库包装订单号行号,
       b.containertotalvolume as 货箱总体积,
       b.containertotalweight as 货箱总重量,
       b.containerlong as 货箱长,
       b.containerwide as 货箱宽,
       b.containerhigh as 货箱高,
       b.containerheavy as 货箱重,
       b.overseaspartsfigure as 海外配件图号,
       b.overseasprojectnumber as 海外行项目号
  from yxdcs.PartsOutboundBill a
 inner join yxdcs.PartsOutboundBillDetail b
    on a.id = b.partsoutboundbillid
 where a.PartsSalesCategoryId = 8
   and a.CreateTime >=
       to_date(to_char(trunc(sysdate), 'yyyy-mm-dd') || '11:30:00',
               'yyyy-mm-dd hh24:mi:ss');



--销售订单错误信息
--影响行数：851 
select '主单' || a.id, a.*
  from yxdcs.PartsSalesOrderASAP a
 where a.handlestatus = 3
 order by a.id;



--出库计划错误信息
--影响行数：892
select '主单' || a.id, a.*
  from yxdcs.PartsOutboundPlanASAP a
 where a.handlestatus = 3
 order by a.id;