create sequence  S_SIHSmartOrderBase
/ 

create table SIHSmartOrderBase  ( 
   Id                 NUMBER(9)                       not null, 
   WarehouseId        NUMBER(9)                       not null, 
   WarehouseName      VARCHAR2(100)                   not null, 
   WarehouseCode      VARCHAR2(100)                   not null, 
   SparePartId        NUMBER(9)                       not null, 
   SparePartCode      VARCHAR2(50)                    not null, 
   SparePartName      VARCHAR2(100)                   not null, 
   PartABC            NUMBER(9), 
   SalesPrice         NUMBER(19,4), 
   ReferenceCode      VARCHAR2(50), 
   OrderTimes         NUMBER(9), 
   PartsSupplierName  VARCHAR2(100), 
   IsSalable          NUMBER(1), 
   IsDirectSupply     NUMBER(1), 
   IsOrderable        NUMBER(1), 
   MinBatch           NUMBER(9), 
   MinPackingAmount   NUMBER(9), 
   OrderGoodsCycle    NUMBER(9), 
   OrderCycle         NUMBER(9), 
   ArrivalCycle       NUMBER(9), 
   SafeDay            NUMBER(19,4), 
   StandStock         NUMBER(19,4), 
   ReserveCoefficient NUMBER(9), 
   UpperLimitCoefficient NUMBER(19,4), 
   lowerlimitcoefficient NUMBER(19,4), 
   ArriveCycle        NUMBER(9), 
   WarehousDays       NUMBER(9), 
   TemDays            NUMBER(9), 
   AvailableStock     NUMBER(9), 
   OnWayNumber        NUMBER(9), 
   CurrentShortager   NUMBER(9), 
   pack               NUMBER(9), 
   CarryTime          DATE, 
   constraint PK_SIHSMARTORDERBASE primary key (Id) 
) 

