品牌,分销中心编号,分销中心名称,人员账号,人员姓名,联系电话,管辖区域,传真,邮编,备注
上汽红岩,FXZXCQ,重庆特区,6894,唐勇,15808000912,,,,
上汽红岩,FXZXGZ01,贵州销售服务中心,5408,唐孝军,15808000862,,,,
上汽红岩,FXZXCD,成都销售服务中心,5597,凌达,15808000766,,,,
上汽红岩,FXZXYN,云南销售服务中心,5741,李忠武,15808000852,,,,
上汽红岩,FXZXHJ,黑吉销售服务中心,3092,黄强,18723300258,,,,
上汽红岩,FXZXSY,沈阳销售服务中心,5870,李安军,15808000727,,,,
上汽红岩,FXZXHB01,河北销售服务中心,5563,游波,15808000720,,,,
上汽红岩,FXZXSX,山西销售服务中心,9061,李昌国,15808000796,,,,
上汽红岩,FXZXBJ,北京销售服务中心,5867,杨天勇,15808000857,,,,
上汽红岩,FXZXNMG,内蒙古销售服务中心,10866,成珂,15808000732,,,,
上汽红岩,FXZXAH,安徽销售服务中心,6727,蒋友斌,15808000875,,,,
上汽红岩,FXZXHN01,河南销售服务中心,10026,杨兴旺,15808000810,,,,
上汽红岩,FXZXLDB,鲁东北销售服务中心,8766,蔡学斌,15808000866,,,,
上汽红岩,FXZXLXN,鲁西南销售服务中心,5818,胡全,15808000818,,,,
上汽红岩,FXZXXJ,新疆销售服务中心,2575,吴亚峰,15808000751,,,,
上汽红岩,FXZXXJ,新疆销售服务中心,7481,陶伟杰,15808000800,,,,
上汽红岩,FXZXGS,甘肃销售服务中心,5144,郭贵云,15808000881,,,,
上汽红岩,FXZXXA,西安销售服务中心,6893,蒋立新,15808000733,,,,
上汽红岩,FXZXSH,上海销售服务中心,6621,鲜剑,15808000758,,,,
上汽红岩,FXZXZJ,浙江销售服务中心,2600,吕正俊,15808000702,,,,
上汽红岩,FXZXJS,江苏销售服务中心,837,唐宏,15808000826,,,,
上汽红岩,FXZXGX,广西销售服务中心,2087,孙艳国,15808000863,,,,
上汽红岩,FXZXGZ,广州销售服务中心,2801,韦斌,15808000775,,,,
上汽红岩,FXZXFJ,福建销售服务中心,1713,马彦敏,15808000807,,,,
上汽红岩,FXZXJX,江西销售服务中心,7559,徐平,15808000835,,,,
上汽红岩,FXZXHB,湖北销售服务中心,7847,宋洪华,15808000870,,,,
上汽红岩,FXZXHN,湖南销售服务中心,7226,张仁,15808000787,,,,
